…
``` r
## 출산후 일을 그만둔 가구
df_1 <- df%>%
  group_by(D9)%>%
  filter(D9 == 1)
df_1
```

    ## # A tibble: 272 x 10
    ## # Groups:   D9 [1]
    ##       D9  B7_1  B7_2  B7_3  B7_4  B7_5  B7_6   B12   B14    B17
    ##    <dbl> <dbl> <dbl> <dbl> <dbl> <dbl> <dbl> <dbl> <dbl>  <dbl>
    ##  1    1.    2.    2.    2.    2.    2.    2.    3.    4.  6000.
    ##  2    1.    2.    2.    2.    2.    2.    2.    4.    4.     0.
    ##  3    1.    2.    1.    2.    2.    2.    2.    3.    4.  8000.
    ##  4    1.    2.    2.    2.    2.    2.    2.    3.    5. 10000.
    ##  5    1.    3.    2.    3.    2.    3.    2.    3.    4.  1000.
    ##  6    1.    3.    2.    3.    2.    3.    3.    3.    5.     0.
    ##  7    1.    3.    2.    3.    2.    3.    3.    4.    4.  5000.
    ##  8    1.    3.    2.    3.    2.    2.    2.    2.    5. 15000.
    ##  9    1.    3.    2.    2.    2.    2.    2.    3.    3.     0.
    ## 10    1.    3.    2.    3.    2.    2.    3.    2.    5.     0.
    ## # ... with 262 more rows

``` r
## 출산후 일을 그만두지 않은 가구
df_2 <- df%>%
  group_by(D9)%>%
  filter(D9 == 2)

df_2
```

    ## # A tibble: 2,039 x 10
    ## # Groups:   D9 [1]
    ##       D9  B7_1  B7_2  B7_3  B7_4  B7_5  B7_6   B12   B14   B17
    ##    <dbl> <dbl> <dbl> <dbl> <dbl> <dbl> <dbl> <dbl> <dbl> <dbl>
    ##  1    2.    2.    2.    2.    2.    2.    2.    3.    4.    0.
    ##  2    2.    2.    2.    2.    2.    2.    2.    4.    3.    0.
    ##  3    2.    3.    2.    3.    2.    2.    2.    3.    3.    0.
    ##  4    2.    2.    2.    2.    2.    2.    2.    3.    4.  500.
    ##  5    2.    2.    2.    2.    2.    2.    2.    3.    4. 3500.
    ##  6    2.    2.    2.    2.    2.    2.    2.    2.    5. 3500.
    ##  7    2.    2.    2.    2.    2.    2.    2.    3.    4. 3000.
    ##  8    2.    2.    2.    2.    2.    2.    2.    2.    5.    0.
    ##  9    2.    3.    2.    3.    2.    2.    2.    3.    5.    0.
    ## 10    2.    2.    2.    2.    2.    2.    2.    3.    5. 2000.
    ## # ... with 2,029 more rows
…
